[
  {
    "id": "b58fj",
    "firstName": "Moshe",
    "lastName": "Levi",
    "age": 35,
    "city": "Tel Aviv"
  },
  {
    "id": "wpap",
    "firstName": "Avital",
    "lastName": "Vainer",
    "age": 27,
    "city": "Petah Tikva"
  },
  {
    "id": "51znp",
    "firstName": "Amit",
    "lastName": "Shalev",
    "age": 23,
    "city": "Bat Yam"
  },
  {
    "id": "a8f4j",
    "firstName": "Avi",
    "lastName": "Cohen",
    "age": 30,
    "city": "Ashdod"
  }
]